<svg width="50" height="50" viewBox="0 0 50 50" fill="none" xmlns="http://www.w3.org/2000/svg">
<path d="M45.05 5.86407C39.6992 0.514073 29.9117 1.62423 23.1922 8.3461C19.2539 12.2836 17.2578 17.2688 17.3422 21.8031C17.025 26.6594 16.1547 31.3461 13.857 34.0633L13.0625 33.268L11.8367 34.493L12.1766 34.8328L3.93516 43.0742L3.59531 42.7344L2.37109 43.9586L6.84766 48.4375L8.07344 47.2133L7.73359 46.8742L15.9758 38.6328L16.3156 38.9719L17.5391 37.7477L16.8539 37.0586C19.5695 34.7625 24.25 33.893 29.1016 33.5734C33.6375 33.6617 38.6273 31.6664 42.5687 27.725C49.293 21.0031 50.4023 11.2156 45.05 5.86407ZM45.9734 14.5914L44.85 13.4695L45.7219 12.5992C45.8633 13.2461 45.9461 13.9117 45.9734 14.5914ZM45.3586 11.3336L44.0367 12.6563L41.557 10.1758L43.5242 8.20782C44.3299 9.12288 44.9526 10.184 45.3586 11.3336ZM22.5391 22.5992L25.65 19.4867L28.132 21.968L25.0195 25.0789L22.5391 22.5992ZM24.207 25.8961L22.2359 27.8649C21.4294 26.9495 20.8066 25.8875 20.4016 24.7367L21.7242 23.4156L24.207 25.8961ZM34.3336 10.8055L37.443 7.69454L39.9234 10.1766L36.8117 13.2883L34.3336 10.8055ZM39.2922 17.3977L36.1789 20.5164L33.6953 18.0367L36.8117 14.9188L39.2922 17.3977ZM35.9969 14.1031L32.8805 17.2195L30.4 14.7391L33.5164 11.6219L35.9969 14.1031ZM32.0648 18.0367L28.9477 21.1531L26.4656 18.6711L29.5836 15.5547L32.0648 18.0367ZM29.5836 13.9234L27.1094 11.4484L30.2258 8.33126L32.6984 10.8055L29.5836 13.9234ZM28.7688 14.7399L25.65 17.8555L23.1766 15.3805L26.2914 12.2625L28.7688 14.7399ZM28.9477 22.7852L31.4273 25.2641L28.3164 28.3766L25.8375 25.8945L28.9477 22.7852ZM29.7656 21.968L32.8805 18.8516L35.3609 21.332L32.2422 24.4492L29.7656 21.968ZM36.1789 22.1469L38.6492 24.6227L35.532 27.7391L33.0562 25.2641L36.1789 22.1469ZM36.9922 21.3313L40.1086 18.2149L42.5844 20.6891L39.468 23.8063L36.9922 21.3313ZM37.6281 14.1039L40.7406 10.9914L43.2203 13.4703L40.1117 16.5828L37.6281 14.1039ZM42.7094 7.3922L40.7406 9.36095L38.2578 6.87892L39.5789 5.55782C40.7307 5.96213 41.7937 6.58498 42.7094 7.3922ZM38.3141 5.1922L37.4438 6.06251L36.3227 4.94142C37.0023 4.96954 37.668 5.05157 38.3141 5.1922ZM34.7273 4.97735L36.6273 6.87814L33.5172 9.98985L31.0406 7.51564L33.4008 5.15548C33.8453 5.07345 34.2883 5.01485 34.7273 4.97735ZM31.1672 5.75782L30.2266 6.70001L29.8258 6.29923C30.2645 6.09862 30.7121 5.91797 31.1672 5.75782ZM28.7406 6.84454L29.4094 7.51407L26.2914 10.632L25.1344 9.47189C26.221 8.44773 27.4327 7.56496 28.7406 6.84454ZM24.318 10.2891L25.4773 11.4484L22.3602 14.5649L21.6906 13.8945C22.4113 12.587 23.294 11.3756 24.318 10.2891ZM21.1445 14.9805L21.5445 15.3813L20.6023 16.3234C20.7602 15.8719 20.9398 15.425 21.1445 14.9805ZM20 18.5547L22.3602 16.1953L24.8352 18.6703L21.7242 21.7805L19.8211 19.8781C19.8594 19.4406 19.918 18.9984 20 18.5547ZM20.907 22.5984L20.0367 23.4688C19.8949 22.8136 19.8113 22.1472 19.7867 21.4774L20.907 22.5984ZM17.568 33.3492C16.7133 32.4945 17.8258 29.182 18.5961 27.2125C19.1305 28.3055 19.8219 29.3211 20.707 30.2063C21.593 31.0922 22.6094 31.7844 23.7047 32.3195C21.7352 33.0891 18.4211 34.2024 17.568 33.3492ZM23.0516 28.6813L25.0203 26.7117L27.5008 29.193L26.1766 30.5141C25.0272 30.1088 23.9663 29.4866 23.0516 28.6813ZM27.4445 30.8781L28.3156 30.007L29.4375 31.1297C28.7671 31.1046 28.1002 31.0204 27.4445 30.8781ZM31.0336 31.0938L29.1305 29.1906L32.2414 26.0797L34.718 28.5539L32.357 30.9164C31.919 30.9971 31.4774 31.0563 31.0336 31.0938ZM34.5898 30.3141L35.5312 29.3727L35.9328 29.7727C35.4883 29.975 35.0406 30.1555 34.5898 30.3141ZM37.0211 29.2242L36.3516 28.5539L39.468 25.4383L40.6266 26.5969C39.5404 27.6213 38.3289 28.5041 37.0211 29.2242ZM41.4422 25.7813L40.2828 24.6227L43.3992 21.5055L44.0703 22.175C43.3492 23.4827 42.4662 24.6943 41.4422 25.7813ZM44.6156 21.0899L44.2148 20.6899L45.1562 19.7484C44.9967 20.2036 44.8163 20.6512 44.6156 21.0899ZM45.7594 17.5133L43.3992 19.8742L40.9258 17.3977L44.0367 14.2867L45.9383 16.1899C45.9003 16.6337 45.8406 17.0753 45.7594 17.5133Z" fill="#F79329"/>
<path d="M10.1562 18.75C12.4516 18.75 14.6102 17.8562 16.2336 16.2336C17.857 14.6102 18.75 12.4516 18.75 10.1562C18.75 7.86094 17.8547 5.70234 16.2312 4.07969C14.6086 2.45703 12.4508 1.5625 10.1555 1.5625C7.86016 1.5625 5.70312 2.45625 4.08047 4.07969C2.45703 5.70234 1.5625 7.86094 1.5625 10.1562C1.5625 12.4516 2.45625 14.6109 4.07969 16.2336C4.87592 17.0339 5.82295 17.6684 6.86598 18.1003C7.909 18.5322 9.02733 18.7531 10.1562 18.75ZM15.2195 5.09297C16.5134 6.38255 17.2612 8.1207 17.3078 9.94687C15.492 9.86948 13.7716 9.11271 12.4875 7.82656C11.2006 6.54267 10.4437 4.82168 10.3672 3.00547C12.1927 3.05229 13.9302 3.79977 15.2195 5.09297ZM5.09297 5.09219C6.27071 3.90858 7.82766 3.17754 9.49062 3.02734C9.5721 5.06865 10.4196 7.00434 11.8642 8.44884C13.3088 9.89333 15.2446 10.7406 17.2859 10.8219C17.1363 12.4854 16.4049 14.0428 15.2203 15.2203C14.0423 16.4039 12.4851 17.1349 10.8219 17.2852C10.7406 15.2442 9.89314 13.3088 8.44844 11.8648C7.00466 10.4199 5.06917 9.57237 3.02812 9.49141C3.17698 7.82762 3.90819 6.26974 5.09297 5.09219ZM7.82578 12.4859C9.11179 13.7704 9.86851 15.4911 9.94609 17.307C8.12017 17.2607 6.38211 16.5135 5.09219 15.2203C3.79857 13.9307 3.05128 12.1924 3.00547 10.3664C4.82108 10.4439 6.54139 11.2003 7.82578 12.4859Z" fill="#00796B"/>
</svg>
